Replication of Surveillance Cues Enhance Moral Condemnation by Bourrat, Baumard, & McKay (2011, Evolutionary Psychology)
…
#Main statistical test - Wilcoxon 

mydata %>% select(wallet_control:condition) 

## # A tibble: 90 x 11
##    wallet_control resume_control wallet_experime resume_experime Q10   Q11  
##             <dbl>          <dbl>            <dbl>            <dbl> <chr> <chr>
##  1              1              2               NA               NA 35-4 Male 
##  2             NA             NA                9                5 25-3 Fema
##  3              1              2               NA               NA 35-4 Male 
##  4             NA             NA                4                8 25-3 Male 
##  5             NA             NA                1                1 35-4 Male 
##  6              2              2               NA               NA 25-3 Male 
##  7              2              4               NA               NA 25-3 Male 
##  8             NA             NA                1                1 25-3 Male 
##  9              2              1               NA               NA Over Male 
## 10             NA             NA                2                4 35-4 Male 
## #  with 80 more rows, and 5 more variables: Q11_5_TEXT <chr>, Q12 <chr>,
## #   Q12_7_TEXT <chr>, mTurk <lgl>, condition <chr>
…
